27
[-819.706, 339.92, 0, 1]
[525.378, -299.459, 0, 1]
[846.191, -59.688, 0, 1]
[-55.1908, -191.746, 0, 1]
[-810.606, 278.609, 0, 1]
[129.945, -482.895, 0, 1]
[-47.1518, 14.682, 0, 1]
[417.443, -311.299, 0, 1]
[664.239, 377.4, 0, 1]
[862.188, 130.329, 0, 1]
[327.514, -138.854, 0, 1]
[854.338, 258.624, 0, 1]
[-351.135, 301.828, 0, 1]
[-33.3576, 377.442, 0, 1]
[366.667, -400, 0, 0]
[601.526, 336.632, 0, 1]
[-268.203, -276.868, 0, 1]
[-875.04, 65.6606, 0, 1]
[-369.35, -305.285, 0, 1]
[143.548, 336.778, 0, 1]
[704.957, 275.864, 0, 1]
[116.667, -342.6, 0, 0]
[-836.376, -245.44, 0, 1]
[-192.83, -107.551, 0, 1]
[324.965, 100, 0, 0]
[199.521, -30.2487, 0, 0]
[-836.763, -304.041, 0, 1]
